<?xml version="1.0" encoding="UTF-8"?>
<!DOCTYPE svg PUBLIC "-//W3C//DTD SVG 1.1//EN" "http://www.w3.org/Graphics/SVG/1.1/DTD/svg11.dtd">
<!-- Creator: CorelDRAW 2020 (64-Bit) -->
<svg xmlns="http://www.w3.org/2000/svg" xml:space="preserve" width="156.073mm" height="35.9438mm" version="1.1" style="shape-rendering:geometricPrecision; text-rendering:geometricPrecision; image-rendering:optimizeQuality; fill-rule:evenodd; clip-rule:evenodd"
viewBox="0 0 11662.63 2685.92"
 xmlns:xlink="http://www.w3.org/1999/xlink"
 xmlns:xodm="http://www.corel.com/coreldraw/odm/2003">
 <defs>
  <style type="text/css">
   <![CDATA[
    .str0 {stroke:#181818;stroke-width:14.95;stroke-miterlimit:22.9256}
    .fil1 {fill:#FEFEFE}
    .fil3 {fill:#181818}
    .fil2 {fill:white}
    .fil0 {fill:#FEFEFE}
   ]]>
  </style>
 </defs>
 <g id="Слой_x0020_1">
  <metadata id="CorelCorpID_0Corel-Layer"/>
  <g id="_981114080">
   <polygon class="fil0" points="11662.63,0 -0,0 -0,154.14 11662.63,154.14 "/>
   <polygon class="fil0" points="11662.63,2531.78 -0,2531.78 -0,2685.92 11662.63,2685.92 "/>
   <polygon class="fil0" points="11662.63,154.14 11511.55,154.14 11511.55,2531.78 11662.63,2531.78 "/>
   <polygon class="fil1" points="28.19,2240.9 518.37,2240.9 518.37,901.78 1122.21,901.78 1122.21,2240.9 1612.4,2240.9 1612.4,472.27 28.19,472.27 "/>
   <path class="fil1" d="M2537.13 459.65l-752.94 1781.25 515.43 0 126.32 -315.82 682.21 0 128.86 315.82 525.51 0 -4.42 -10.45c-6.26,-1.73 -11.57,-3.31 -15.78,-4.72l2.35 -27.07 -735.09 -1739.02 -472.45 0zm32.83 1083.91l199.61 -502.81 197.07 502.81 -396.69 0z"/>
   <path class="fil1" d="M4616.5 901.78l411.85 0 0 1339.12 490.18 0 0 -1768.63 -1359.32 0 0 245.09c0,1071.28 -131.39,1142.01 -270.36,1142.01 -22.74,0 -90.96,-5.04 -113.7,-10.09l-30.47 349.39 13.43 31.78c50.22,13.76 162.76,35.72 277.29,35.72 343.63,0 581.1,-217.3 581.1,-1296.17l0 -68.22z"/>
   <path class="fil1" d="M5831.8 472.27l0 1768.63 783.25 0c432.05,0 709.99,-229.93 709.99,-611.43 0,-399.22 -310.77,-601.34 -735.26,-601.34l-267.8 0 0 -555.86 -490.18 0zm490.18 1356.78l0 -416.89 257.71 0c159.17,0 255.17,80.88 255.17,204.66 0,138.97 -96,212.23 -257.71,212.23l-255.17 0z"/>
   <polygon class="fil2" points="11155.67,379.52 7335.87,379.52 7335.87,2332.92 11155.67,2332.92 "/>
   <polygon class="fil3" points="8454.43,2240.9 8454.43,901.78 8985.02,901.78 8985.02,472.27 7433.67,472.27 7433.67,901.78 7964.26,901.78 7964.26,2240.9 "/>
   <path class="fil3 str0" d="M10094.17 436.91c-545.74,0 -955.05,411.81 -955.05,919.69 0,512.89 404.27,919.66 950.01,919.66 545.75,0 955.05,-411.81 955.05,-919.66 0,-512.92 -404.24,-919.69 -950.01,-919.69zm-452.25 919.69c0,-260.25 179.38,-477.56 447.2,-477.56 270.36,0 454.79,222.35 454.79,477.56 0,260.22 -179.38,477.53 -449.74,477.53 -267.79,0 -452.25,-222.35 -452.25,-477.53z"/>
  </g>
 </g>
</svg>
