<?xml version="1.0" encoding="UTF-8"?>
<!DOCTYPE svg PUBLIC "-//W3C//DTD SVG 1.1//EN" "http://www.w3.org/Graphics/SVG/1.1/DTD/svg11.dtd">
<!-- Creator: CorelDRAW 2020 (64-Bit) -->
<svg xmlns="http://www.w3.org/2000/svg" xml:space="preserve" width="135.462mm" height="79.0222mm" version="1.1" style="shape-rendering:geometricPrecision; text-rendering:geometricPrecision; image-rendering:optimizeQuality; fill-rule:evenodd; clip-rule:evenodd"
viewBox="0 0 13545.74 7901.95"
 xmlns:xlink="http://www.w3.org/1999/xlink"
 xmlns:xodm="http://www.corel.com/coreldraw/odm/2003">
 <defs>
  <style type="text/css">
   <![CDATA[
    .fil0 {fill:white;fill-rule:nonzero}
   ]]>
  </style>
 </defs>
 <g id="Слой_x0020_1">
  <metadata id="CorelCorpID_0Corel-Layer"/>
  <path class="fil0" d="M11240.53 4531.21c-218.99,-276.57 -156.34,-399.62 0,-646.83 2.82,-2.82 1810.68,-2500.97 1996.93,-3348.17l1.13 -0.56c92.57,-308.74 0,-535.64 -447.58,-535.64l-1481.06 -0.01c-377.04,0 -550.88,194.72 -644.01,412.6 0,0 -754.07,1805.03 -1820.84,2975.09 -344.3,338.09 -503.46,446.46 -691.42,446.46 -92.57,0 -236.49,-108.37 -236.49,-417.11l0 -2881.39c0,-370.27 -105.55,-535.64 -417.68,-535.64l-2328.82 -0.01c-236.49,0 -377.04,172.71 -377.04,333.58 0,351.07 533.38,431.79 588.7,1419.53l0 2143.13c0,469.6 -85.23,555.96 -274.31,555.96 -503.46,0 -1725.45,-1812.37 -2449.61,-3886.63 -146.19,-402.44 -288.99,-564.99 -668.85,-564.99l-1481.61 -0.02c-422.76,0 -507.98,194.72 -507.98,412.6 0,384.94 503.46,2298.9 2341.24,4827.53 1224.8,1726.01 2949.69,2661.27 4518.79,2661.27 943.16,0 1058.29,-207.71 1058.29,-564.99 0,-1649.25 -85.23,-1805.03 387.2,-1805.03 218.99,0 596.03,108.37 1476.54,940.9 1006.37,987.18 1171.75,1429.12 1735.04,1429.12l1481.05 0c422.19,0 636.11,-207.71 513.06,-617.48 -281.65,-861.88 -2184.89,-2634.74 -2270.68,-2753.27z"/>
 </g>
</svg>
